%YAML 1.1
%TAG !u! tag:unity3d.com,2011:
--- !u!114 &11400000
MonoBehaviour:
  m_ObjectHideFlags: 0
  m_CorrespondingSourceObject: {fileID: 0}
  m_PrefabInstance: {fileID: 0}
  m_PrefabAsset: {fileID: 0}
  m_GameObject: {fileID: 0}
  m_Enabled: 1
  m_EditorHideFlags: 0
  m_Script: {fileID: 11500000, guid: 53abc629dd85c7a43bfda7575ae45ac1, type: 3}
  m_Name: Attack State
  m_EditorClassIdentifier: 
  attackDelay: 1
  idleState: {fileID: 11400000, guid: 63b2840a03834d54aa2276ac15174ee7, type: 2}
